{
  "EDITOR_STATE": {
    "allProjectFiles": {
      "c0300680-a8db-4eff-a44e-ce75120e3567": {
        "id": "c0300680-a8db-4eff-a44e-ce75120e3567",
        "parent": null,
        "name": "chineseAnimal.py",
        "type": "PYTHON_LAMBDA",
        "isDirectory": false,
        "children": [],
        "isRemovable": true,
        "filePath": "chineseAnimal.py",
        "cursor": {
          "lineNumber": 44,
          "column": 1
        },
        "config": {
          "runtime": "python3.8",
          "handler": "handler",
          "timeout": 60,
          "memory": 128,
          "layers": [],
          "name": "chineseAnimal"
        },
        "triggers": [
          {
            "resourceName": "alexaSKe1ac2eea3b2b433ea3abcbbeb5bd708c",
            "config": {}
          }
        ],
        "lastUpdated": 1612299029199
      },
      "16fd9977-ed42-4876-8d7b-6b2cfbe7fd87": {
        "id": "16fd9977-ed42-4876-8d7b-6b2cfbe7fd87",
        "parent": null,
        "name": "requirements.txt",
        "type": "TEXT_FILE",
        "isDirectory": false,
        "children": [],
        "isRemovable": true,
        "filePath": "requirements.txt"
      }
    },
    "openFiles": [
      "c0300680-a8db-4eff-a44e-ce75120e3567"
    ],
    "currentFileId": "c0300680-a8db-4eff-a44e-ce75120e3567",
    "resources": {
      "alexaSKe1ac2eea3b2b433ea3abcbbeb5bd708c": {
        "name": "alexaSKe1ac2eea3b2b433ea3abcbbeb5bd708c",
        "type": "ALEXA",
        "config": {
          "type": 1,
          "verifiedID": true,
          "skillID": "amzn1.ask.skill.e1ac2eea-3b2b-433e-a3ab-cbbeb5bd708c",
          "applicationID": ""
        }
      },
      "ddbChineseAnimal": {
        "name": "ddbChineseAnimal",
        "type": "DynamoDB",
        "config": {
          "mode": 0,
          "table": {
            "arn": "",
            "name": "ChineseAnimal",
            "partitionKey": "BirthYear",
            "partitionKeyType": "S",
            "hasSortKey": false,
            "sortKey": "",
            "sortKeyType": "S",
            "payPerRequest": true,
            "mode": 0
          }
        }
      }
    },
    "customTemplate": {
      "syntax": "JSON",
      "overrideDefault": false,
      "dialect": null,
      "definitions": null
    },
    "envVariables": [
      {
        "lambdaId": "all",
        "varKey": "SIGMA_AWS_ACC_ID",
        "varValue": null,
        "shouldPersist": false,
        "displayOnly": false,
        "editable": false
      }
    ],
    "packageJSON": {
      "dependencies": {
        "ask_sdk_core": {
          "name": "ask_sdk_core",
          "version": "1.13.0",
          "dev": false,
          "language": "python"
        },
        "boto3": {
          "name": "boto3",
          "language": "python",
          "version": "1.16.43",
          "dev": true,
          "notRemovable": false
        }
      }
    }
  },
  "PROJECT_META": {
    "sigmaVersion": "1.6.0",
    "projectName": "chineseAnimal",
    "projectDescription": "chineseAnimal",
    "projectVersion": "1.0.0",
    "projectRegion": "us-east-1",
    "platform": "AWS",
    "language": "python",
    "platformRegions": {},
    "lastSave": 1612310514453
  },
  "VCS_STATE": {
    "provider": "GitLab",
    "repo": {
      "name": "chineseanimal",
      "url": "https://gitlab.com/emoron/chineseanimal"
    }
  }
}